gather
…
gather

Shaked Leibovitz

3/19/2021

## # A tibble: 156 x 9
##    overall_rank country_or_region score gdp_per_capita social_support
##           <dbl> <chr>             <dbl>          <dbl>          <dbl>
##  1            1 Finland            7.77           1.34           1.59
##  2            2 Denmark            7.6            1.38           1.57
##  3            3 Norway             7.55           1.49           1.58
##  4            4 Iceland            7.49           1.38           1.62
##  5            5 Netherlands        7.49           1.40           1.52
##  6            6 Switzerland        7.48           1.45           1.53
##  7            7 Sweden             7.34           1.39           1.49
##  8            8 New Zealand        7.31           1.30           1.56
##  9            9 Canada             7.28           1.36           1.50
## 10           10 Austria            7.25           1.38           1.48
## #  with 146 more rows, and 4 more variables: healthy_life_expectancy <dbl>,
## #   freedom_to_make_life_choices <dbl>, generosity <dbl>,
## #   perceptions_of_corruption <dbl>
…
